\contentsline {section}{MEX routines}{5}{section*.2}
\contentsline {subsection}{NRGWilsonQS}{5}{section*.3}
\contentsline {subsection}{fdmNRG\_QS}{8}{section*.4}
\contentsline {subsection}{tdmNRG}{11}{section*.5}
\contentsline {subsection}{compactQS}{14}{section*.6}
\contentsline {subsection}{contractQS}{14}{section*.7}
\contentsline {subsection}{diagQS}{16}{section*.8}
\contentsline {subsection}{eigQS}{16}{section*.9}
\contentsline {subsection}{getDimQS}{17}{section*.10}
\contentsline {subsection}{getIdentityQS}{18}{section*.11}
\contentsline {subsection}{getQDimQS}{19}{section*.12}
\contentsline {subsection}{getRC}{19}{section*.13}
\contentsline {subsection}{getSmoothSpec}{19}{section*.14}
\contentsline {subsection}{getSmoothTDM}{20}{section*.15}
\contentsline {subsection}{getSymStates}{21}{section*.16}
\contentsline {subsection}{isIdentityCG}{22}{section*.17}
\contentsline {subsection}{isIdentityQS}{22}{section*.18}
\contentsline {subsection}{makeUniqueQS}{23}{section*.19}
\contentsline {subsection}{mpsIsHConj}{23}{section*.20}
\contentsline {subsection}{normQS}{23}{section*.21}
\contentsline {subsection}{orthoQS}{23}{section*.22}
\contentsline {subsection}{permuteQS}{25}{section*.23}
\contentsline {subsection}{plusQS}{25}{section*.24}
\contentsline {subsection}{setupRCStore}{26}{section*.25}
\contentsline {subsection}{skipZerosQS}{26}{section*.26}
\contentsline {subsection}{svdQS}{27}{section*.27}
\contentsline {subsection}{traceQS}{28}{section*.28}
\contentsline {section}{QSpace member functions}{29}{section*.29}
\contentsline {subsection}{QSpace/Casimir.m}{29}{section*.30}
\contentsline {subsection}{QSpace/QSpace.m}{29}{section*.31}
\contentsline {subsection}{QSpace/SEntropy.m}{30}{section*.32}
\contentsline {subsection}{QSpace/SetCC.m}{30}{section*.33}
\contentsline {subsection}{QSpace/SetOL.m}{30}{section*.34}
\contentsline {subsection}{QSpace/acomm.m}{31}{section*.35}
\contentsline {subsection}{QSpace/appendScalarSymmetry.m}{31}{section*.36}
\contentsline {subsection}{QSpace/appendSingletons.m}{31}{section*.37}
\contentsline {subsection}{QSpace/applyK1K2.m}{31}{section*.38}
\contentsline {subsection}{QSpace/applyZ.m}{31}{section*.39}
\contentsline {subsection}{QSpace/blkdiag.m}{32}{section*.40}
\contentsline {subsection}{QSpace/cat.m}{32}{section*.41}
\contentsline {subsection}{QSpace/cgr\_size.m}{32}{section*.42}
\contentsline {subsection}{QSpace/checkOM.m}{32}{section*.43}
\contentsline {subsection}{QSpace/checkSameSpace.m}{32}{section*.44}
\contentsline {subsection}{QSpace/chopd.m}{33}{section*.45}
\contentsline {subsection}{QSpace/comm.m}{33}{section*.46}
\contentsline {subsection}{QSpace/compact.m}{33}{section*.47}
\contentsline {subsection}{QSpace/conj.m}{33}{section*.48}
\contentsline {subsection}{QSpace/contract.m}{34}{section*.49}
\contentsline {subsection}{QSpace/ctranspose.m}{34}{section*.50}
\contentsline {subsection}{QSpace/decomposeOp.m}{34}{section*.51}
\contentsline {subsection}{QSpace/deconj.m}{34}{section*.52}
\contentsline {subsection}{QSpace/diag.m}{34}{section*.53}
\contentsline {subsection}{QSpace/dim.m}{35}{section*.54}
\contentsline {subsection}{QSpace/disp\_cgr.m}{35}{section*.55}
\contentsline {subsection}{QSpace/disp\_qdim.m}{35}{section*.56}
\contentsline {subsection}{QSpace/display.m}{35}{section*.57}
\contentsline {subsection}{QSpace/dsize.m}{35}{section*.58}
\contentsline {subsection}{QSpace/eig.m}{36}{section*.59}
\contentsline {subsection}{QSpace/eq.m}{36}{section*.60}
\contentsline {subsection}{QSpace/expandQ.m}{36}{section*.61}
\contentsline {subsection}{QSpace/fixAbelian.m}{36}{section*.62}
\contentsline {subsection}{QSpace/fixScalarOp.m}{37}{section*.63}
\contentsline {subsection}{QSpace/gdisp.m}{37}{section*.64}
\contentsline {subsection}{QSpace/getAtensorLoc.m}{37}{section*.65}
\contentsline {subsection}{QSpace/getEQdata.m}{37}{section*.66}
\contentsline {subsection}{QSpace/getId.m}{38}{section*.67}
\contentsline {subsection}{QSpace/getIdentity.m}{38}{section*.68}
\contentsline {subsection}{QSpace/getQSpectra.m}{38}{section*.69}
\contentsline {subsection}{QSpace/get\_cgr\_fac.m}{38}{section*.70}
\contentsline {subsection}{QSpace/get\_qdim.m}{39}{section*.71}
\contentsline {subsection}{QSpace/getitags.m}{39}{section*.72}
\contentsline {subsection}{QSpace/getproj.m}{39}{section*.73}
\contentsline {subsection}{QSpace/getqdim.m}{40}{section*.74}
\contentsline {subsection}{QSpace/getqdir.m}{40}{section*.75}
\contentsline {subsection}{QSpace/getqfmt.m}{40}{section*.76}
\contentsline {subsection}{QSpace/getscalar.m}{40}{section*.77}
\contentsline {subsection}{QSpace/getsub.m}{40}{section*.78}
\contentsline {subsection}{QSpace/getsym.m}{41}{section*.79}
\contentsline {subsection}{QSpace/getvac.m}{41}{section*.80}
\contentsline {subsection}{QSpace/getzdim.m}{41}{section*.81}
\contentsline {subsection}{QSpace/gotCGS.m}{42}{section*.82}
\contentsline {subsection}{QSpace/gotITags.m}{42}{section*.83}
\contentsline {subsection}{QSpace/got\_orthogonal\_cgw.m}{42}{section*.84}
\contentsline {subsection}{QSpace/imag.m}{42}{section*.85}
\contentsline {subsection}{QSpace/info.m}{42}{section*.86}
\contentsline {subsection}{QSpace/info2.m}{43}{section*.87}
\contentsline {subsection}{QSpace/info3.m}{43}{section*.88}
\contentsline {subsection}{QSpace/isAbelian.m}{43}{section*.89}
\contentsline {subsection}{QSpace/isOrtho.m}{43}{section*.90}
\contentsline {subsection}{QSpace/isQSpace.m}{43}{section*.91}
\contentsline {subsection}{QSpace/isdiag.m}{43}{section*.92}
\contentsline {subsection}{QSpace/isequal.m}{44}{section*.93}
\contentsline {subsection}{QSpace/isfield.m}{44}{section*.94}
\contentsline {subsection}{QSpace/isop.m}{44}{section*.95}
\contentsline {subsection}{QSpace/isreal.m}{44}{section*.96}
\contentsline {subsection}{QSpace/isscalar.m}{44}{section*.97}
\contentsline {subsection}{QSpace/isscalarop.m}{45}{section*.98}
\contentsline {subsection}{QSpace/issingleop.m}{45}{section*.99}
\contentsline {subsection}{QSpace/itag2iter.m}{45}{section*.100}
\contentsline {subsection}{QSpace/itagrep.m}{46}{section*.101}
\contentsline {subsection}{QSpace/itags2odir.m}{46}{section*.102}
\contentsline {subsection}{QSpace/join.m}{46}{section*.103}
\contentsline {subsection}{QSpace/makeIrop.m}{46}{section*.104}
\contentsline {subsection}{QSpace/minus.m}{46}{section*.105}
\contentsline {subsection}{QSpace/mrdivide.m}{46}{section*.106}
\contentsline {subsection}{QSpace/mtimes.m}{46}{section*.107}
\contentsline {subsection}{QSpace/norm.m}{47}{section*.108}
\contentsline {subsection}{QSpace/norm2.m}{47}{section*.109}
\contentsline {subsection}{QSpace/numsym.m}{47}{section*.110}
\contentsline {subsection}{QSpace/olap.m}{47}{section*.111}
\contentsline {subsection}{QSpace/permute.m}{47}{section*.112}
\contentsline {subsection}{QSpace/plotEdata.m}{47}{section*.113}
\contentsline {subsection}{QSpace/plotQSpectra.m}{48}{section*.114}
\contentsline {subsection}{QSpace/plot\_op.m}{48}{section*.115}
\contentsline {subsection}{QSpace/plus.m}{48}{section*.116}
\contentsline {subsection}{QSpace/randomize.m}{48}{section*.117}
\contentsline {subsection}{QSpace/real.m}{49}{section*.118}
\contentsline {subsection}{QSpace/rmtrace.m}{49}{section*.119}
\contentsline {subsection}{QSpace/sameas.m}{49}{section*.120}
\contentsline {subsection}{QSpace/setitags.m}{49}{section*.121}
\contentsline {subsection}{QSpace/showdeg.m}{49}{section*.122}
\contentsline {subsection}{QSpace/skiprecs.m}{50}{section*.123}
\contentsline {subsection}{QSpace/skipzeros.m}{50}{section*.124}
\contentsline {subsection}{QSpace/sort.m}{50}{section*.125}
\contentsline {subsection}{QSpace/squeeze.m}{50}{section*.126}
\contentsline {subsection}{QSpace/subsasgn.m}{51}{section*.127}
\contentsline {subsection}{QSpace/sum.m}{51}{section*.128}
\contentsline {subsection}{QSpace/symperm.m}{51}{section*.129}
\contentsline {subsection}{QSpace/tensor.m}{51}{section*.130}
\contentsline {subsection}{QSpace/times.m}{51}{section*.131}
\contentsline {subsection}{QSpace/trace.m}{52}{section*.132}
\contentsline {subsection}{QSpace/transpose.m}{52}{section*.133}
\contentsline {subsection}{QSpace/tstfun.m}{52}{section*.134}
\contentsline {subsection}{QSpace/xitags.m}{52}{section*.135}
